%YAML 1.1
%TAG !u! tag:unity3d.com,2011:
--- !u!114 &11400000
MonoBehaviour:
  m_ObjectHideFlags: 0
  m_PrefabParentObject: {fileID: 0}
  m_PrefabInternal: {fileID: 0}
  m_GameObject: {fileID: 0}
  m_Enabled: 1
  m_EditorHideFlags: 0
  m_Script: {fileID: 11500000, guid: 7f777e7bbd214e34699eb91a5380802c, type: 3}
  m_Name: Colors
  m_EditorClassIdentifier: 
  _colors:
  - Type: 2
    Color: {r: 1, g: 0.627451, b: 0, a: 1}
  - Type: 3
    Color: {r: 0, g: 1, b: 0.5019608, a: 1}
  - Type: 4
    Color: {r: 0, g: 0.503, b: 1, a: 1}
  - Type: 5
    Color: {r: 1, g: 0.2509804, b: 1, a: 1}
